{
    "achievements": [
        {
            "id": "82459119-6e22-47ef-a79a-e0d1be01e4f2",
            "title": "Winner",
            "name": "ITCC",
            "type": "Bussiness Idea",
            "year": "2021",
            "abstract": "ITCC atau kepanjangan dari Information Technology Creative Competition adalah Perlombaan Tahunan yang diadakan oleh Universitas Udayana.",
            "icon_dark": "/icons/bisnis.png",
            "icon_light": "/icons/bisnis-light.png",
            "certivicate": "/achievements/itcc_certivicate.jpg",
            "date": "25 September 2021",
            "description": "ITCC atau kepanjangan dari Information Technology Creative Competition adalah Perlombaan Tahunan yang diadakan oleh Universitas Udayana. ITCC 2021 mengusung tema “Innovative Technology for Better Future” yang bertujuan untuk mengembangkan kreativitas dan inovasi mahasiswa/i dalam bidang teknologi informasi. ITCC 2021 terdiri dari 3 kategori lomba, yaitu Software Development, Business Idea, dan Web Design. ITCC 2021 diselenggarakan secara daring pada tanggal 25 September 2021."
        },
        {
            "id": "dfcc1973-a20d-43b4-b63c-7ebf8114c6dc",
            "title": "Finalist",
            "name": "E FEST",
            "type": "Bussiness Idea",
            "year": "2021",
            "abstract": "E-FEST atau kepanjangan dari Entrepreneurs Festival adalah Perlombaan Tahunan yang diadakan oleh Politeknik Negeri Malang",
            "icon_dark": "/icons/bisnis.png",
            "icon_light": "/icons/bisnis-light.png",
            "certivicate": "/achievements/e-fest_certivicate.jpg",
            "date": "4 Desember 2021",
            "description": "E-FEST atau kepanjangan dari Entrepreneurs Festival adalah Perlombaan Tahunan yang diadakan oleh Politeknik Negeri Malang. E-FEST 2021 mengusung tema 'Business Start Up Innovation for the Millenials Entrepreneurs in Digital Economy Era' yang bertujuan untuk mengembangkan kreativitas dan inovasi mahasiswa/i dalam berwirausaha. E-FEST 2021 terdiri dari 2 kategori lomba, yaitu Business Plan dan Poster and Video Digital Marketing. E-FEST 2021 diselenggarakan secara daring pada tanggal 4 Desember 2021."
        },
        {
            "id": "f4e8611f-bcc6-4f1b-b2cf-d1d55b362230",
            "title": "Finalist",
            "name": "KMIPN IV",
            "type": "E Government",
            "year": "2022",
            "abstract": "KMIPN IV atau kepanjangan dari Kompetisi Mahasiswa Informatika Politeknik Nasional IV adalah Perlombaan di bidang teknologi Tahunan ke-empat yang diadakan oleh BAKORMA (Satuan Direktur Politeknik Nasional).",
            "icon_dark": "/icons/government.png",
            "icon_light": "/icons/government-light.png",
            "certivicate": "/achievements/kmipn-iv_certivicate.jpg",
            "date": "3 Agustus 2022",
            "description": "KMIPN IV atau kepanjangan dari Kompetisi Mahasiswa Informatika Politeknik Nasional IV adalah Perlombaan di bidang teknologi Tahunan ke-empat yang diadakan oleh BAKORMA (Satuan Direktur Politeknik Nasional). KMIPN IV 2022 yang diadakan di Politeknik Negeri Batam mengusung tema 'Indonesia Makin Cakap Informatika' yang bertujuan untuk mengembangkan kreativitas dan inovasi mahasiswa/i dalam bidang informatika. KMIPN IV terdiri dari 7 kategori lomba, yaitu Animasi, Cipta Inovasi TIK, Pengembangan Aplikasi Permainan, Perencanaan Bisnis TIK, E - Government, Internet of Things, Keamanan Siber dan Hackaton. KMIPN IV diikuti sebanyak 628 Tim terdiri dari 26 Politeknik se-Indonesia dan kemudian diselksi menjadi 115 tim finalis yang akan bertanding di Politeknik Negeri Batam pada tanggal 3 Agustus 2022."
        },
        {
            "id": "75f24dc7-9b2b-4f2e-be6d-c1bfb09b157f",
            "title": "Winner",
            "name": "INVFEST 7.0",
            "type": "Website Application",
            "year": "2023",
            "abstract": "INVFEST 7.0 atau kepanjangan dari Informatics Innovation Festival adalah Perlombaan di bidang teknologi Tahunan ke-tujuh yang diadakan oleh IT Telkom Purwokerto.",
            "icon_dark": "/icons/apps.png",
            "icon_light": "/icons/apps-light.png",
            "certivicate": "/achievements/INVFEST_certivicate.jpg",
            "date": "3 Januari 2023",
            "description": "INVFEST 7.0 atau kepanjangan dari Informatics Innovation Festival adalah Perlombaan di bidang teknologi Tahunan ke-tujuh yang diadakan oleh IT Telkom Purwokerto. INVFEST 7.0 mengusung tema 'Inovasi dan aktualisasi peran generasi muda dalam menghadapi era revolusi industri 5.0' yang bertujuan untuk mengembangkan kreativitas dan inovasi mahasiswa/i dalam bidang teknologi informasi. INVFEST. INVFEST 7.0 diselenggarakan secara daring pada tanggal 3 Januari 2023."
        },
        {
            "id": "c335e1ca-13ce-4d9d-bd97-a8500ad274cd",
            "title": "Finalist",
            "name": "IO FEST",
            "type": "Website Development",
            "year": "2023",
            "abstract": "IO FEST adalah Perlombaan di bidang teknologi Tahunan yang diadakan oleh Universitas Tarumanegara.",
            "icon_dark": "/icons/apps.png",
            "icon_light": "/icons/apps-light.png",
            "certivicate": null,
            "date": "25 Mei 2023",
            "description": "IO FEST adalah Perlombaan di bidang teknologi Tahunan yang diadakan oleh Universitas Tarumanegara. IO FEST mengusung tema 'Spark A Culture of Creativity with Technology' yang bertujuan untuk mengembangkan kreativitas dan inovasi mahasiswa/i dalam bidang teknologi informasi. IO FEST terdiri dari 3 kategori lomba, yaitu Business Plan, Web Development, dan UI/UX Design. IO FEST diselenggarakan secara daring pada tanggal 25 Mei 2023."
        },
        {
            "id": "1a6e3b52-e741-4a7e-b49f-23c58c6796e3",
            "title": "Finalist",
            "name": "Unity",
            "type": "Software Development",
            "year": "2023",
            "abstract": "UNITY atau kepanjangan dari National Competition & Innovation of Information Technology adalah Perlombaan di bidang teknologi Tahunan yang diadakan oleh Universitas Negeri Yogyakarta.",
            "icon_dark": "/icons/apps.png",
            "icon_light": "/icons/apps-light.png",
            "certivicate": "/achievements/Unity_certivicate.jpg",
            "date": "19 Mei 2023",
            "description": "UNITY atau kepanjangan dari National Competition & Innovation of Information Technology adalah Perlombaan di bidang teknologi Tahunan yang diadakan oleh Universitas Negeri Yogyakarta. Unity merupakan kompetisi nasional mahasiswa dalam bidang teknologi yang termasuk ke dalam rangkaian Dies Natalis UNY.ini dikoordinatori oleh UKM Rekayasa Teknologi UNY, dimana bertujuan untuk mewadahi, memfasilitasi, serta mendukung mahasiswa Indonesia dalam menciptakan inovasi teknologi Informasi dalam dunia pendidikan yang ditujukan untuk memberikan warna baru dalam media pembelajaran. UNITY terdiri dari 3 kategori lomba, yaitu Software Development, Capture The Flag, dan UI/UX Design. UNITY diikuti sebanyak lebih dari 500 tim yang terdiri dari lebih 300 universitas di Indonesia dengan rincian sebanyak 6.500 lebih participant. UNITY diselenggarakan di Universitas Negeri Yogyakarta secara luring pada tanggal 19 Mei 2023."
        }
    ],
    "projects": [
        {
            "id": "377891c9-eadf-4dc5-8dc3-f7ae1cf613aa",
            "image": "/sehat-chain.png",
            "title": "Sehat Chain",
            "url_app": "https://frontend-sehatchain.vercel.app/user/sign-in",
            "abstract": "Sehat Chain adalah aplikasi pencatatan rekam medis elektronik dengan keamanan yang mumpuni karena menggunakan teknologi blockchain.",
            "url_code": "https://github.com/milhamap/backend-app-sehatchain",
            "description": "Pengguna terdapat 3 role yaitu Admin, Rumah Sakit dan Pasien. Apabila pihak Rumah Sakit\ningin menggunakan aplikasi kami maka pihak rumah sakit harus mengirimkan berkas berkas dulu \nkepada admin. Apabila pihak rumah sakit sudah mengirimkan berkas pendaftaran ke admin sehat \nchain, maka akan divalidasi data tersebut apakah benar atau tidak. Apabila data yang dikirimkan \nsudah sesuai dan benar benar ada maka Rumah Sakit tersebut akan dibuatkan akun. <br> <br> Pengguna dengan role Rumah Sakit dapat menambahkan data rekam medis pasien, dengan \nmengisi formulir yang sudah disediakan di website. Kemudian untuk pengguna dengan role Pasien\ndapat mendaftarkan diri mereka menggunakan aplikasi kami untuk melihat riwayat rekam medis \nnya yang sudah divalidasi oleh pihak rumah sakit bahwa rekam medis tersebut bisa dilihat pasien\ndikarenakan tidak semua rekam medis dapat diketahui oleh pasien. <br> <br> Kami menggunakan jaringan blockchain Polygon, yang dikembangkan sebagai solusi skala \nbagi Ethereum. Polygon memecahkan beberapa masalah utama dalam pengembangan aplikasi \nblockchain, seperti biaya transaksi yang tinggi dan kecepatan transaksi yang lambat, dengan \nmenggunakan teknologi Proof of Stake (PoS)."
        },
        {
            "id": "53fd113f-0cb2-4b21-afe2-f8ee7e8151d5",
            "image": "/gowaste.png",
            "title": "Go - Waste",
            "url_app": null,
            "abstract": "Go - Waste adalah aplikasi penukaran sampah dari masyarakat oleh bank sampah yang memudahkan pengguna dalam melakukan transaksi.",
            "url_code": "https://github.com/milhamap/app_gowaste",
            "description": "Aplikasi Go – Waste digunakan untuk melakukan transaksi jual beli sampah dari masyarakat \nkepada bank sampah. Disini masyarakat dapat memilih pembayaran dengan menggunakan tunai \natau ewallet. Apabila masyarakat memilih pembayaran menggunakan ewallet maka pihak bank \nsampah harus memastikan terlebih dahulu bahwa didalam ewallet nya terdapat saldo. <br> <br> Bank Sampah dapat melakukan \nmanajemen terkait sampah apa saja yang tersedia untuk ditukarkan oleh customer, mereka dapat \nmengatur harga serta satuan setiap sampah. Selain itu, bank sampah juga dapat monitoring terkait \npesanan apa saja yang masuk pada akunnya, bank sampah dapat melakukan koreksi apabila \ninputan dari customer tidak sesuai dengan apa yang dibawa. <br> <br> Pengguna dengan role customer dapat menukarkan sampah yang dimiliki kepada bank sampah yang tersedia didalam sistem, \npengguna dapat memilih apakah sampah yang dimiliki dijemput atau diantar oleh bank sampah. \nSehingga pengguna memiliki banyak pilihan dan pertimbangan mengenali harga sampah dan juga \njarak antar bank sampah dengan tempat mereka saat ini. Pengguna juga dapat melihat edukasi \nmengenai penanganan sampah agar bisa diolah kembali menjadi barang yang memiliki nilai jual."
        },
        {
            "id": "d5eb2336-278d-448b-96a3-b5bba2498c86",
            "image": "/simple-wallet.png",
            "title": "Simple Wallet",
            "url_app": "https://play.google.com/store/apps/details?id=com.fn1.mobile_simple_wallet",
            "abstract": "Simple Wallet adalah aplikasi sistem pencatatan riwayat transaksi yang memudahkan pengguna dalam mengaksesnya serta kolaborasi antar pengguna berbasis mobile dan website aplikasi.",
            "url_code": null,
            "description": "Dengan menggunakan aplikasi simple wallet kita bisa melakukan pencatatan transaksi dengan \ncara inputan manual, pencatatan transaksi dengan inputan voice dan pencatatan transaksi dengan \nmenggunakan scan struk. Selain itu, pengguna juga bisa melakukan kolaborasi antar pengguna, \njadi pengguna yang membagikan riwayat pencatatan transaksi bisa diakses dengan pengguna lain. <br> <br> Dengan menggunakan fitur pencatatan transaksi voice recording, pengguna hanya perlu melakukan 3 interaksi yaitu membuka aplikasi simple wallet, melakukan pencatatan transaksi via voice kemudian mengirimnya ke server kita. Selain itu, pengguna juga diberikan kemudahan dalam melakukan pencatatan transaksi dengan scan struk. Pengguna hanya perlu menyiapkan struk riwayat pengeluaran yang akan dicatat, kemudian melakukan scan struk tersebut dengan menggunakan aplikasi simple wallet. Kemudian dengan adanya fitur Share Wallet, pengguna hanya perlu scan QR Code yang diberikan oleh pengguna lain, kemudian pengguna akan mendapatkan riwayat pencatatan transaksi yang dibagikan oleh pengguna lain tersebut."
        }
    ]
}